<?xml version="1.0" encoding="UTF-8"?>
<svg width="48px" height="47px" viewBox="0 0 48 47" version="1.1" xmlns="http://www.w3.org/2000/svg" xmlns:xlink="http://www.w3.org/1999/xlink">
    <!-- Generator: Sketch 50 (54983) - http://www.bohemiancoding.com/sketch -->
    <title>043-key</title>
    <desc>Created with Sketch.</desc>
    <defs></defs>
    <g id="Yasna-Web-3" stroke="none" stroke-width="1" fill="none" fill-rule="evenodd">
        <g id="Yasna-Web-3---Landing-2-Copy-2" transform="translate(-696.000000, -1773.000000)" fill="#FFFFFF" fill-rule="nonzero">
            <g id="Group-2" transform="translate(135.000000, 1721.000000)">
                <g id="Group-Copy-2" transform="translate(468.000000, 0.000000)">
                    <g id="Group-4" transform="translate(77.000000, 35.000000)">
                        <g id="043-key" transform="translate(16.000000, 17.000000)">
                            <path d="M42.5916257,14.9548591 C42.0748538,14.9548591 41.6553918,15.3729167 41.6553918,15.8879583 C41.6553918,16.403 42.0748538,16.8210575 42.5916257,16.8210575 C43.1083977,16.8210575 43.5278596,16.403 43.5278596,15.8879583 C43.5278596,15.3729167 43.1084912,14.9548591 42.5916257,14.9548591 Z" id="Shape"></path>
                            <path d="M31.9994386,4.3981369 C31.4826667,4.3981369 31.0632047,4.81619444 31.0632047,5.33123611 C31.0632047,5.84627778 31.4826667,6.26433532 31.9994386,6.26433532 C32.5162105,6.26433532 32.9356725,5.84627778 32.9356725,5.33123611 C32.9356725,4.81610119 32.5162105,4.3981369 31.9994386,4.3981369 Z" id="Shape"></path>
                            <path d="M16.8245146,30.0398075 C16.3077427,30.0398075 15.8882807,30.4578651 15.8882807,30.9729067 C15.8882807,31.4879484 16.3077427,31.906006 16.8245146,31.906006 C17.3412865,31.906006 17.7607485,31.4879484 17.7607485,30.9729067 C17.7607485,30.4578651 17.3412865,30.0398075 16.8245146,30.0398075 Z" id="Shape"></path>
                            <path d="M29.2114152,4.56422222 C29.0985731,4.06130357 28.5978947,3.74451984 28.0934737,3.85707738 C27.0413099,4.0914246 26.0847719,4.61942857 25.3278129,5.38355159 C23.1484444,7.58126786 23.170152,11.1285556 25.3758129,13.3008135 C25.7431579,13.6627321 26.3361871,13.6599345 26.6997895,13.2930734 C27.0632982,12.9264921 27.0597427,12.3357282 26.6920234,11.9735298 C25.2226433,10.5262282 25.2072982,8.15990873 26.6599298,6.69498214 C27.1642573,6.18590873 27.801076,5.83434127 28.5018012,5.67832738 C29.0065029,5.56595635 29.3241637,5.06714087 29.2114152,4.56422222 Z" id="Shape"></path>
                            <path d="M43.4157661,18.6614246 C42.9125614,18.5437381 42.4086082,18.8552063 42.2905263,19.3569127 C42.1337076,20.0236786 41.7951813,20.6339325 41.3114386,21.1218373 C39.8612398,22.5850853 37.4853801,22.601498 36.0157193,21.1540099 C35.648,20.7917183 35.0550643,20.7949821 34.6917427,21.16175 C34.3282339,21.5283313 34.3317895,22.1190952 34.6995088,22.4812937 C36.9028304,24.6515 40.4640936,24.6322897 42.643462,22.4334544 C43.3695439,21.7010377 43.8780819,20.7844444 44.1135906,19.7828968 C44.2316725,19.2811905 43.9192515,18.7791111 43.4157661,18.6614246 Z" id="Shape"></path>
                            <path d="M41.9298246,5.99091468 C40.8323743,4.89695238 39.0551579,4.89676587 37.9572398,5.99082143 C36.8621287,7.08235913 36.8620351,8.8582877 37.9573333,9.95010516 C39.0528187,11.0416429 40.8345263,11.0415496 41.9298246,9.95010516 C43.0271813,8.85623611 43.0277427,7.08487698 41.9298246,5.99091468 Z M40.6057544,8.630375 C40.2407485,8.99434524 39.6465029,8.99425198 39.2813099,8.63046825 C38.9162105,8.26659127 38.9162105,7.67433532 39.2813099,7.31036508 C39.6469708,6.94592857 40.2398129,6.94555556 40.605848,7.31036508 C40.9716023,7.67480159 40.9716959,8.26565873 40.6057544,8.630375 Z" id="Shape"></path>
                            <path d="M47.8749006,17.9013115 C47.6923509,15.6553829 46.7419883,13.531244 45.189614,11.8857778 C47.1128889,9.32931349 46.9090058,5.67562302 44.5775906,3.35201389 C42.2460819,1.02840476 38.5803041,0.825111111 36.0151579,2.74203968 C34.3641637,1.19495635 32.2328889,0.24768254 29.9794152,0.0658373016 C27.5642573,-0.128970238 25.2359298,0.581904762 23.4227836,2.06781349 C19.0047251,5.68849206 18.9450292,12.1137837 22.731883,15.8880516 L24.0550175,17.206756 L14.1875088,27.0244405 L9.54273684,22.3960595 C9.17726316,22.0317163 8.58460819,22.0317163 8.21894737,22.3959663 C2.15869006,28.4350933 4.0154386,26.584748 0.274152047,30.3131349 C-0.0914152047,30.6774782 -0.0914152047,31.2683353 0.274152047,31.6327718 L4.91106433,36.2541587 L1.59897076,39.5495675 C0.501426901,40.6434365 0.501146199,42.4146091 1.59897076,43.5088512 L4.24654971,46.147379 C5.34119298,47.2385437 7.12290058,47.2385437 8.21847953,46.1480317 L30.6751813,23.8046607 L31.9994386,25.1245774 C35.7868538,28.8993115 42.2334503,28.8387897 45.8661053,24.4359901 C47.3570058,22.6290079 48.0703626,20.3082897 47.8749006,17.9013115 Z M2.26011696,30.9729067 L3.5845614,29.6528968 L5.57005848,31.6324921 C5.93534503,31.9968353 6.5282807,31.9972083 6.89403509,31.6327718 C7.25969591,31.2685218 7.25978947,30.6776647 6.89422222,30.3132282 L4.90853801,28.3333532 L6.23251462,27.013996 L8.2188538,28.9930317 C8.58442105,29.3572817 9.17726316,29.3572817 9.54283041,28.9928452 C9.90839766,28.6284087 9.90821053,28.0375516 9.54264327,27.6732083 L7.5565848,25.6945456 L8.88065497,24.3750952 L12.8527719,28.3332599 L6.23232749,34.9317242 L2.26011696,30.9729067 Z M44.4197427,23.2506389 C41.5188772,26.766873 36.3620117,26.8333631 33.3235088,23.8048472 L31.3378246,21.8258115 C30.9724444,21.461748 30.3801637,21.4615615 30.0143158,21.825252 L6.8954386,44.8274623 C6.52987135,45.1913393 5.93553216,45.191619 5.57052632,44.8278353 L2.92294737,42.1892143 C2.56121637,41.8286944 2.55363743,41.2372778 2.92238596,40.8696706 L26.0409825,17.8675536 C26.406924,17.5033968 26.4072047,16.9120734 26.0415439,16.5474504 L24.0558596,14.5684147 C21.020538,11.543256 21.0811696,6.40272421 24.6119298,3.50924008 C25.9244912,2.43364881 27.5551813,1.90685714 29.211883,1.90685714 C31.2572632,1.90685714 33.3419415,2.71042659 34.9128421,4.27597421 L35.3095673,4.67146429 C35.485193,4.84650198 35.7233216,4.94488492 35.9715556,4.94488492 C35.9716491,4.94488492 35.9716491,4.94488492 35.9716491,4.94488492 C36.2199766,4.94488492 36.4580117,4.84650198 36.6336374,4.67155754 C38.4585731,2.8528254 41.4283977,2.85263889 43.2533333,4.67155754 C45.0783626,6.49047619 45.0783626,9.45017063 43.2533333,11.2690893 C43.0778012,11.444127 42.9790877,11.6815516 42.9790877,11.9289544 C42.9790877,12.1763571 43.0778012,12.4136885 43.2534269,12.5887262 L43.6502456,12.984123 C46.4934737,15.8179246 46.8314386,20.3275 44.4197427,23.2506389 Z" id="Shape"></path>
                            <path d="M14.838924,32.9518492 C14.4733567,32.5876925 13.8806082,32.5875992 13.5149474,32.9518492 L8.2188538,38.2301171 C7.85328655,38.5944603 7.85319298,39.1853175 8.2188538,39.549754 C8.58451462,39.9140972 9.17726316,39.9140972 9.54283041,39.549754 L14.838924,34.2714861 C15.2044912,33.9071429 15.2045848,33.3162857 14.838924,32.9518492 Z" id="Shape"></path>
                        </g>
                    </g>
                </g>
            </g>
        </g>
    </g>
</svg>