<?xml version="1.0" encoding="UTF-8"?>
<svg width="32px" height="26px" viewBox="0 0 32 26" version="1.1" xmlns="http://www.w3.org/2000/svg" xmlns:xlink="http://www.w3.org/1999/xlink">
    <!-- Generator: Sketch 50 (54983) - http://www.bohemiancoding.com/sketch -->
    <title>map</title>
    <desc>Created with Sketch.</desc>
    <defs>
        <filter x="-0.0%" y="-0.6%" width="100.1%" height="100.7%" filterUnits="objectBoundingBox" id="filter-1">
            <feOffset dx="0" dy="-1" in="SourceAlpha" result="shadowOffsetOuter1"></feOffset>
            <feColorMatrix values="0 0 0 0 0.904147786   0 0 0 0 0.935016895   0 0 0 0 0.955596301  0 0 0 1 0" type="matrix" in="shadowOffsetOuter1" result="shadowMatrixOuter1"></feColorMatrix>
            <feMerge>
                <feMergeNode in="shadowMatrixOuter1"></feMergeNode>
                <feMergeNode in="SourceGraphic"></feMergeNode>
            </feMerge>
        </filter>
    </defs>
    <g id="Symbols" stroke="none" stroke-width="1" fill="none" fill-rule="evenodd">
        <g id="Footer" transform="translate(-1103.000000, -100.000000)" fill="#FFFFFF" fill-rule="nonzero">
            <g id="Inner-footer">
                <g id="Where-we-are" filter="url(#filter-1)">
                    <g id="Project-item" transform="translate(167.000000, 83.000000)">
                        <g id="Content-item" transform="translate(801.000000, 0.000000)">
                            <g id="Group-4" transform="translate(121.000000, 0.000000)">
                                <g id="map" transform="translate(14.000000, 18.000000)">
                                    <path d="M4.51830019,2.66163342 C3.4994152,2.66163342 2.67040936,3.48323207 2.67040936,4.49301328 C2.67040936,5.50285631 3.4994152,6.32445496 4.51830019,6.32445496 C5.53718519,6.32445496 6.36619103,5.50285631 6.36619103,4.49301328 C6.36619103,3.48323207 5.53718519,2.66163342 4.51830019,2.66163342 Z M4.51830019,5.00692973 C4.23235867,5.00692973 3.99975049,4.77633808 3.99975049,4.49295146 C3.99975049,4.20956484 4.23235867,3.97903502 4.51830019,3.97903502 C4.80424172,3.97903502 5.0368499,4.20950302 5.0368499,4.49295146 C5.0368499,4.7763999 4.80417934,5.00692973 4.51830019,5.00692973 Z" id="Shape"></path>
                                    <path d="M30.6783938,8.26037382 L30.6783938,3.60916107 C30.6783938,2.70874088 29.9390253,1.9752369 29.029614,1.97418595 L8.24751657,1.96386187 C8.0851462,1.72980826 7.89950877,1.50892248 7.69072904,1.30485197 C6.82317349,0.456855832 5.67472904,-0.00210190775 4.45436257,0.0157643081 C2.01275634,0.0492711905 0.0145964912,2.04571263 6.23781676e-05,4.46599759 C-0.00417933723,5.1832427 0.166861598,5.89758223 0.494721248,6.53204926 C0.501208577,6.54466071 1.57567251,8.33016952 1.57567251,8.33016952 L1.57567251,23.3123207 C1.57567251,24.2134827 2.31547758,24.9466776 3.22445224,24.9466776 L29.0279922,24.9605255 C29.9380273,24.9605255 30.6783938,24.2270215 30.6783938,23.3254885 L30.6783938,14.6715634 C30.6783938,14.6715634 31.4364756,13.4115933 31.442963,13.3989201 C31.7665809,12.772737 31.9376842,12.0676706 31.9376842,11.3599459 C31.9376218,10.1934489 31.4906823,9.0981077 30.6783938,8.26037382 Z M26.1336452,3.29022748 L22.9244133,6.47078483 L19.7119376,3.2870128 L26.1336452,3.29022748 Z M22.0783158,7.30926057 L16.4851774,12.8524241 L14.4401715,10.8256904 C14.4400468,10.8255668 14.4399844,10.825505 14.4398596,10.8253813 C14.4397349,10.8252577 14.4396725,10.8251958 14.4395478,10.8250722 L12.9055439,9.30477469 L18.4986823,3.76167303 L22.0783158,7.30926057 Z M10.9403197,15.1323139 L14.0169357,12.0831876 L17.969653,16.0005873 L14.893037,19.0497136 L10.9403197,15.1323139 Z M11.69023,17.5523516 L8.23903314,20.9726501 L5.47368421,18.2319478 L8.92481871,14.8116494 L11.69023,17.5523516 Z M8.54156725,6.53204926 C8.86518519,5.90586622 9.0362885,5.20079981 9.0362885,4.4930751 C9.0362885,4.07733011 8.97840156,3.67098189 8.86874074,3.28163439 L17.2868616,3.2858382 L12.0596335,8.46636078 L10.1878519,6.61130355 C9.95418324,6.37984641 9.57548538,6.37984641 9.34181676,6.61130355 C9.10821053,6.84282251 9.10821053,7.21826032 9.34181676,7.4498411 L13.170963,11.2447737 L10.094347,14.2939 L7.60258869,11.8244057 C7.36898246,11.5929486 6.99022222,11.5929486 6.75655361,11.8244057 C6.52294737,12.0559865 6.52294737,12.4313625 6.75655361,12.6629433 L8.07872125,13.9732973 L2.90507602,19.1006539 L2.90507602,10.5382854 L3.377154,11.3224207 C3.61924366,11.7245033 4.04578558,11.9645535 4.51817544,11.9645535 C4.9905653,11.9645535 5.41710721,11.7245033 5.65919688,11.3224825 C5.6591345,11.3224207 8.53507992,6.54466071 8.54156725,6.53204926 Z M1.66861598,5.91328471 C1.44049903,5.46502198 1.32634698,4.98090316 1.32940351,4.47384883 C1.33963353,2.76573968 2.74969201,1.35678145 4.47263938,1.33310408 C5.33451852,1.32259454 6.14487329,1.64443371 6.75717739,2.24292103 C6.96801559,2.44903163 7.1454191,2.67931418 7.28851462,2.92696837 C7.29469006,2.93877614 7.30155166,2.95008935 7.30847563,2.96140256 C7.5682807,3.42456411 7.70694737,3.9478155 7.70694737,4.49313692 C7.70694737,4.99332915 7.59279532,5.47101859 7.36767251,5.91340836 L4.5188616,10.6473992 L1.66861598,5.91328471 Z M3.22482651,23.6292142 C3.04854581,23.6292142 2.9051384,23.48715 2.9051384,23.3123825 L2.9051384,20.7776054 L4.62764912,19.0704854 L9.23072125,23.6324907 L3.22482651,23.6292142 Z M10.9236647,23.6332944 L9.08500585,21.811064 L12.5362027,18.3907655 L17.8296764,23.6370036 L10.9236647,23.6332944 Z M15.7390721,19.8881275 L18.8156881,16.8390012 L21.0498246,19.0531756 L17.9732086,22.1023019 L15.7390721,19.8881275 Z M19.5226199,23.6379309 L18.8191813,22.9407776 L21.8957973,19.8916513 L25.6792203,23.6412693 L19.5226199,23.6379309 Z M29.0283665,23.6430002 L27.3722261,23.6421348 L22.7418947,19.0531756 L24.1354854,17.6720367 C24.369154,17.4404559 24.369154,17.0650799 24.1354854,16.8334992 C23.9018791,16.602042 23.5231189,16.602042 23.2894503,16.8334992 L21.8957973,18.2146998 L19.2389864,15.5816276 C19.2388616,15.581504 19.2387992,15.5814422 19.2386745,15.5813185 C19.2385497,15.5811949 19.2384873,15.5811331 19.2383626,15.5810094 L17.3312749,13.6908998 L19.5989708,11.4434658 L20.7740507,12.6080464 C20.9038596,12.7366337 21.0739649,12.8009891 21.2440702,12.8009891 C21.4141754,12.8009891 21.5843431,12.7366337 21.7140897,12.6080464 C21.9736452,12.3508099 21.9736452,11.9337049 21.7140897,11.6763448 L20.5390097,10.5117643 L27.8247797,3.29109297 L29.0284912,3.29171118 C29.2051462,3.29189664 29.3489279,3.4343318 29.3489279,3.60916107 L29.3489279,7.30858054 C28.7346901,7.02031007 28.0573255,6.87224922 27.3555712,6.88275875 C24.9139649,6.91632746 22.9158674,8.91264525 22.9013957,11.332992 C22.897154,12.0502371 23.0681949,12.7645767 23.3960546,13.3990437 C23.4025419,13.4115933 26.2784873,18.1894151 26.2784873,18.1894151 C26.520577,18.5914977 26.9471189,18.8315479 27.4195712,18.8315479 C27.891961,18.8315479 28.3185029,18.5915595 28.5605302,18.1894769 L29.3489903,16.8798029 L29.3489903,23.3255504 L29.3491774,23.3255504 C29.3489903,23.5005651 29.2049591,23.6430002 29.0283665,23.6430002 Z M30.2690058,12.7802173 L29.4300819,14.1742767 C29.4298324,14.1748331 29.4293957,14.1753277 29.4291462,14.1758841 L27.4201326,17.51427 L24.5700117,12.7801555 C24.3418947,12.3318928 24.2277427,11.847774 24.2307992,11.3407196 C24.2409669,9.63261048 25.6510877,8.22371408 27.3740975,8.20003671 C28.2342924,8.18841439 29.046269,8.51130452 29.6585107,9.10979184 C30.2709396,9.7084028 30.6082807,10.5075605 30.6082807,11.3600077 C30.6082807,11.8602 30.4941287,12.3378894 30.2690058,12.7802173 Z" id="Shape"></path>
                                    <path d="M27.4196335,9.52862787 C26.4006862,9.52862787 25.5717427,10.3502265 25.5717427,11.3600695 C25.5717427,12.3698508 26.4007485,13.1914494 27.4196335,13.1914494 C28.4385809,13.1914494 29.2675244,12.3698508 29.2675244,11.3600695 C29.2675244,10.3501029 28.4385809,9.52862787 27.4196335,9.52862787 Z M27.4196335,11.8738624 C27.133692,11.8738624 26.9010838,11.6433943 26.9010838,11.3599459 C26.9010838,11.0764975 27.1336296,10.8459676 27.4196335,10.8459676 C27.7056374,10.8459676 27.9381832,11.0765593 27.9381832,11.3599459 C27.9381832,11.6433325 27.705575,11.8738624 27.4196335,11.8738624 Z" id="Shape"></path>
                                </g>
                            </g>
                        </g>
                    </g>
                </g>
            </g>
        </g>
    </g>
</svg>