<?xml version="1.0" encoding="UTF-8"?>
<svg width="101px" height="120px" viewBox="0 0 101 120" version="1.1" xmlns="http://www.w3.org/2000/svg" xmlns:xlink="http://www.w3.org/1999/xlink">
    <!-- Generator: Sketch 50 (54983) - http://www.bohemiancoding.com/sketch -->
    <title>start</title>
    <desc>Created with Sketch.</desc>
    <defs></defs>
    <g id="Yasna-Services" stroke="none" stroke-width="1" fill="none" fill-rule="evenodd">
        <g id="Landing" transform="translate(-346.000000, -4761.000000)" fill="#FFFFFF" fill-rule="nonzero">
            <g id="Call-to-action" transform="translate(135.000000, 4684.000000)">
                <g id="Group-9" transform="translate(165.000000, 41.000000)">
                    <g id="start" transform="translate(46.800000, 36.000000)">
                        <path d="M49.8,38.6728125 C38.0133736,38.6728125 28.4245245,48.24 28.4245245,60 C28.4245245,64.1404688 29.6145566,68.008125 31.6692764,71.2832813 C31.7317613,71.4042188 31.8069311,71.5202344 31.891967,71.6310938 C35.7105934,77.4639844 42.3112075,81.3271875 49.8,81.3271875 C61.5866264,81.3271875 71.1754755,71.7597656 71.1754755,60 C71.1754755,48.2402344 61.5866264,38.6728125 49.8,38.6728125 Z M34.3638792,66.2908594 C33.5659047,64.3488281 33.1224028,62.225625 33.1224028,60 C33.1226377,50.8246875 40.6039132,43.3603125 49.8,43.3603125 C55.4271651,43.3603125 60.4083396,46.1580469 63.430166,50.4297656 L50.5289123,63.301875 L45.6052896,58.3896094 C44.6877481,57.474375 43.2007953,57.4746094 42.2830189,58.3896094 L34.3638792,66.2908594 Z M49.8,76.6396875 C44.5700604,76.6396875 39.8968472,74.2232813 36.8367311,70.4528906 L43.9442717,63.3614063 L48.8678943,68.2736719 C49.7854358,69.1889063 51.2723887,69.1886719 52.1901651,68.2736719 L65.6530783,54.8411719 C66.1858443,56.4663281 66.4775972,58.1992969 66.4775972,59.9997656 C66.4773623,69.1750781 58.9958519,76.6396875 49.8,76.6396875 Z" id="Shape"></path>
                        <path d="M85.9390613,58.3830469 C85.5700245,46.9296094 82.3576896,35.6974219 76.5916953,25.7657812 C70.4529057,15.1921875 61.5924991,6.38976562 50.9684208,0.310546875 C50.2449113,-0.10359375 49.3548538,-0.10359375 48.6313443,0.310546875 C38.0075009,6.38976562 29.1470943,15.1921875 23.0080698,25.7655469 C17.2420755,35.6971875 14.0297406,46.929375 13.6607038,58.3828125 C5.42585094,61.90875 0,70.021875 0,79.0666406 L0,95.625 C0,96.9194531 1.05190755,97.96875 2.3490566,97.96875 L36.8663292,97.96875 C37.3725509,105.018516 40.4660236,111.770859 45.5303547,116.749453 L48.1511972,119.325937 C48.6083236,119.775234 49.2040443,120 49.8,120 C50.3959557,120 50.9914415,119.775234 51.4488028,119.325937 L54.0696453,116.749453 C59.1339764,111.770859 62.2274491,105.01875 62.7336708,97.9689844 L70.0018868,97.9689844 L70.0018868,110.065547 C70.0018868,111.36 71.0537943,112.409297 72.3509434,112.409297 C73.6480925,112.409297 74.7,111.36 74.7,110.065547 L74.7,97.96875 L97.2509434,97.96875 C98.5480925,97.96875 99.6,96.9194531 99.6,95.625 L99.6,79.066875 C99.6,70.021875 94.1739142,61.90875 85.9390613,58.3830469 Z M49.8,5.06179687 C57.1859038,9.4959375 63.4996981,15.2976562 68.492383,22.03125 L31.107617,22.03125 C36.1003019,15.2976562 42.4140962,9.4959375 49.8,5.06179687 Z M4.69811321,93.28125 L4.69811321,79.0666406 C4.69811321,72.6225 8.17706604,66.7755469 13.6245283,63.6344531 L13.6245283,90.9375 C13.6245283,91.7592187 13.7678208,92.5476562 14.028566,93.28125 L4.69811321,93.28125 Z M50.7722745,113.410312 L49.8,114.366094 L48.8277255,113.410312 C44.6536868,109.307109 42.0748925,103.769297 41.5790066,97.96875 L58.0209934,97.96875 C57.5248726,103.769297 54.9460783,109.307109 50.7722745,113.410312 Z M81.2773585,90.9375 C81.2773585,92.2298437 80.2235717,93.28125 78.9283019,93.28125 L20.6716981,93.28125 C19.3764283,93.28125 18.3226415,92.2298437 18.3226415,90.9375 L18.3226415,60.6065625 C18.3226415,52.1198437 20.0026868,43.8501562 23.1212943,36.2109375 L33.7575877,36.2109375 C35.0547368,36.2109375 36.1066443,35.1616406 36.1066443,33.8671875 C36.1066443,32.5727344 35.0547368,31.5234375 33.7575877,31.5234375 L25.2554123,31.5234375 C26.0811057,29.8846875 26.9763311,28.2817969 27.9373302,26.71875 L71.6626698,26.71875 C77.8371651,36.7626562 81.2773585,48.4621875 81.2773585,60.6065625 L81.2773585,90.9375 Z M94.9018868,93.28125 L85.571434,93.28125 C85.8321792,92.5476562 85.9754717,91.7592187 85.9754717,90.9375 L85.9754717,63.6346875 C91.422934,66.7755469 94.9018868,72.6225 94.9018868,79.066875 L94.9018868,93.28125 Z" id="Shape"></path>
                        <path d="M43.943567,32.2101563 C43.5068774,31.7742187 42.9008208,31.5234375 42.2830189,31.5234375 C41.665217,31.5234375 41.0591604,31.7742187 40.6222358,32.2101563 C40.1853113,32.6460938 39.9339623,33.2507813 39.9339623,33.8671875 C39.9339623,34.4835937 40.1850764,35.0882813 40.6222358,35.5242187 C41.0593953,35.9601563 41.665217,36.2109375 42.2830189,36.2109375 C42.9008208,36.2109375 43.5068774,35.9601563 43.943567,35.5242187 C44.3804915,35.0882812 44.6320755,34.4835937 44.6320755,33.8671875 C44.6320755,33.2507813 44.3807264,32.6460937 43.943567,32.2101563 Z" id="Shape"></path>
                        <path d="M27.2490566,104.238516 C25.9519075,104.238516 24.9,105.287813 24.9,106.582266 L24.9,113.802422 C24.9,115.096875 25.9519075,116.146172 27.2490566,116.146172 C28.5462057,116.146172 29.5981132,115.096875 29.5981132,113.802422 L29.5981132,106.582266 C29.5981132,105.287813 28.5462057,104.238516 27.2490566,104.238516 Z" id="Shape"></path>
                        <path d="M74.0114915,115.999219 C73.5748019,115.563281 72.9687453,115.3125 72.3509434,115.3125 C71.7331415,115.3125 71.1270849,115.563281 70.6901604,115.999219 C70.2532358,116.435156 70.0018868,117.039844 70.0018868,117.65625 C70.0018868,118.272656 70.2530009,118.877344 70.6901604,119.313281 C71.1273198,119.749219 71.7331415,120 72.3509434,120 C72.9687453,120 73.5748019,119.749219 74.0114915,119.313281 C74.448416,118.877344 74.7,118.272656 74.7,117.65625 C74.7,117.039844 74.4486509,116.435156 74.0114915,115.999219 Z" id="Shape"></path>
                    </g>
                </g>
            </g>
        </g>
    </g>
</svg>