<?xml version="1.0" encoding="UTF-8"?>
<svg width="120px" height="111px" viewBox="0 0 120 111" version="1.1" xmlns="http://www.w3.org/2000/svg" xmlns:xlink="http://www.w3.org/1999/xlink">
    <!-- Generator: Sketch 50 (54983) - http://www.bohemiancoding.com/sketch -->
    <title>management</title>
    <desc>Created with Sketch.</desc>
    <defs></defs>
    <g id="Yasna-Web-3" stroke="none" stroke-width="1" fill="none" fill-rule="evenodd">
        <g id="Yasna-Web-3---Landing-2-Copy-2" transform="translate(-1145.000000, -3307.000000)" fill="#FFFFFF" fill-rule="nonzero">
            <g id="Item-Copy-2" transform="translate(0.000000, 3212.000000)">
                <g id="Group-4" transform="translate(1105.000000, 50.000000)">
                    <g id="management" transform="translate(40.000000, 45.000000)">
                        <path d="M84.0989062,0.0348050847 L35.8415625,0.0348050847 C31.9664063,0.0348050847 28.8138281,3.19806992 28.8138281,7.08636229 L28.8138281,42.8144873 C28.8138281,46.7027797 31.9664063,49.8660445 35.8415625,49.8660445 L84.0989062,49.8660445 C87.9740625,49.8660445 91.1266406,46.7027797 91.1266406,42.8144873 L91.1266406,7.08636229 C91.1266406,3.19806992 87.9740625,0.0348050847 84.0989062,0.0348050847 Z M86.4414844,42.8144873 C86.4414844,44.1105064 85.3905469,45.1650064 84.0989062,45.1650064 L35.8415625,45.1650064 C34.5499219,45.1650064 33.4989844,44.1105064 33.4989844,42.8144873 L33.4989844,7.08636229 C33.4989844,5.79034322 34.5499219,4.73584322 35.8415625,4.73584322 L84.0989062,4.73584322 C85.3905469,4.73584322 86.4414844,5.79034322 86.4414844,7.08636229 L86.4414844,42.8144873 Z" id="Shape"></path>
                        <path d="M68.6378906,32.0020996 L40.8724219,32.0020996 C39.5789062,32.0020996 38.5298437,33.0544831 38.5298437,34.3526186 C38.5298437,35.6507542 39.5789062,36.7031377 40.8724219,36.7031377 L68.6376563,36.7031377 C69.9311719,36.7031377 70.9802344,35.6507542 70.9802344,34.3526186 C70.9802344,33.0544831 69.9314063,32.0020996 68.6378906,32.0020996 Z" id="Shape"></path>
                        <path d="M80.2054687,32.6904407 C79.7697656,32.2532606 79.1650781,32.0016292 78.549375,32.0016292 C77.9332031,32.0016292 77.3289844,32.2532606 76.8935156,32.6904407 C76.4578125,33.1276208 76.2067969,33.7341229 76.2067969,34.3521483 C76.2067969,34.9704089 76.4573437,35.5766758 76.8935156,36.0140911 C77.3289844,36.4512712 77.9334375,36.7029025 78.549375,36.7029025 C79.1655469,36.7029025 79.7697656,36.4515064 80.2054687,36.0140911 C80.6411719,35.5766758 80.8919531,34.9704089 80.8919531,34.3521483 C80.8919531,33.7341229 80.6414062,33.1276208 80.2054687,32.6904407 Z" id="Shape"></path>
                        <path d="M78.5496094,9.43688136 L40.8724219,9.43688136 C39.5789062,9.43688136 38.5298437,10.4892648 38.5298437,11.7874004 C38.5298437,13.085536 39.5789062,14.1379195 40.8724219,14.1379195 L78.549375,14.1379195 C79.8428906,14.1379195 80.8919531,13.085536 80.8919531,11.7874004 C80.8919531,10.4892648 79.843125,9.43688136 78.5496094,9.43688136 Z" id="Shape"></path>
                        <path d="M78.5496094,20.7193729 L40.8724219,20.7193729 C39.5789062,20.7193729 38.5298437,21.7717564 38.5298437,23.0698919 C38.5298437,24.3680275 39.5789062,25.420411 40.8724219,25.420411 L78.549375,25.420411 C79.8428906,25.420411 80.8919531,24.3680275 80.8919531,23.0698919 C80.8919531,21.7717564 79.843125,20.7193729 78.5496094,20.7193729 Z" id="Shape"></path>
                        <path d="M27.6424219,76.1772775 L7.02773437,76.1772775 C3.15257813,76.1772775 0,79.3407775 0,83.2288347 L0,103.913403 C0,107.801695 3.15257813,110.96496 7.02773437,110.96496 L27.6424219,110.96496 C31.5175781,110.96496 34.6701562,107.801695 34.6701562,103.913403 L34.6701562,83.2288347 C34.6703906,79.3407775 31.5175781,76.1772775 27.6424219,76.1772775 Z M29.9852344,103.913638 C29.9852344,105.209657 28.9342969,106.264157 27.6426562,106.264157 L7.02773437,106.264157 C5.73609375,106.264157 4.68515625,105.209657 4.68515625,103.913638 L4.68515625,83.2288347 C4.68515625,81.9328157 5.73609375,80.8783157 7.02773437,80.8783157 L27.6424219,80.8783157 C28.9340625,80.8783157 29.985,81.9328157 29.985,83.2288347 L29.985,103.913638 L29.9852344,103.913638 Z" id="Shape"></path>
                        <path d="M70.3073438,76.1772775 L49.6926562,76.1772775 C45.8175,76.1772775 42.6649219,79.3405424 42.6649219,83.2288347 L42.6649219,103.913403 C42.6649219,107.801695 45.8175,110.96496 49.6926562,110.96496 L70.3073438,110.96496 C74.1825,110.96496 77.3350781,107.801695 77.3350781,103.913403 L77.3350781,83.2288347 C77.3350781,79.3407775 74.1825,76.1772775 70.3073438,76.1772775 Z M72.6499219,103.913638 C72.6499219,105.209657 71.5989844,106.264157 70.3073438,106.264157 L49.6926562,106.264157 C48.4010156,106.264157 47.3500781,105.209657 47.3500781,103.913638 L47.3500781,83.2288347 C47.3500781,81.9328157 48.4010156,80.8783157 49.6926562,80.8783157 L70.3073438,80.8783157 C71.5989844,80.8783157 72.6499219,81.9328157 72.6499219,83.2288347 L72.6499219,103.913638 Z" id="Shape"></path>
                        <path d="M112.972266,76.1772775 L92.3575781,76.1772775 C88.4824219,76.1772775 85.3298437,79.3405424 85.3298437,83.2288347 L85.3298437,103.913403 C85.3298437,107.801695 88.4824219,110.96496 92.3575781,110.96496 L112.972266,110.96496 C116.847422,110.96496 120,107.801695 120,103.913403 L120,83.2288347 C120,79.3407775 116.847422,76.1772775 112.972266,76.1772775 Z M115.314844,103.913638 C115.314844,105.209657 114.263906,106.264157 112.972266,106.264157 L92.3575781,106.264157 C91.0659375,106.264157 90.015,105.209657 90.015,103.913638 L90.015,83.2288347 C90.015,81.9328157 91.0659375,80.8783157 92.3575781,80.8783157 L112.972266,80.8783157 C114.263906,80.8783157 115.314844,81.9328157 115.314844,83.2288347 L115.314844,103.913638 Z" id="Shape"></path>
                        <path d="M100.322344,57.8876758 L62.3425781,57.8876758 L62.3425781,55.0371864 C62.3425781,53.7390508 61.2935156,52.6866674 60,52.6866674 C58.7064844,52.6866674 57.6574219,53.7390508 57.6574219,55.0371864 L57.6574219,57.8876758 L47.3203125,57.8876758 C46.0267969,57.8876758 44.9777344,58.9402945 44.9777344,60.2381949 C44.9777344,61.5360953 46.0267969,62.588714 47.3203125,62.588714 L57.6574219,62.588714 L57.6574219,68.9982585 C57.6574219,70.2961589 58.7064844,71.3487775 60,71.3487775 C61.2935156,71.3487775 62.3425781,70.2961589 62.3425781,68.9982585 L62.3425781,62.588714 L100.322344,62.588714 L100.322344,69.9238856 C100.322344,71.221786 101.371406,72.2744047 102.664922,72.2744047 C103.958438,72.2744047 105.0075,71.221786 105.0075,69.9238856 L105.0075,62.588714 C105.0075,59.9966758 102.905625,57.8876758 100.322344,57.8876758 Z" id="Shape"></path>
                        <path d="M29.9852344,57.8876758 L19.6776562,57.8876758 C17.0941406,57.8876758 14.9925,59.9966758 14.9925,62.588714 L14.9925,69.9238856 C14.9925,71.2220212 16.0415625,72.2744047 17.3350781,72.2744047 C18.6285938,72.2744047 19.6776563,71.221786 19.6776563,69.9238856 L19.6776563,62.588714 L29.985,62.588714 C31.2785156,62.588714 32.3275781,61.5360953 32.3275781,60.2381949 C32.3278125,58.9402945 31.27875,57.8876758 29.9852344,57.8876758 Z" id="Shape"></path>
                        <path d="M40.186875,58.5767225 C39.7509375,58.1395424 39.1467188,57.887911 38.5307813,57.887911 C37.9146094,57.887911 37.3103906,58.139072 36.8749219,58.5767225 C36.4392188,59.0139025 36.1882031,59.6204047 36.1882031,60.2384301 C36.1882031,60.8566907 36.43875,61.4629576 36.8749219,61.8999025 C37.3103906,62.3370826 37.9148438,62.5889492 38.5307813,62.5889492 C39.1469531,62.5889492 39.7511719,62.337553 40.186875,61.8999025 C40.6225781,61.4629576 40.8733594,60.8564555 40.8733594,60.2384301 C40.873125,59.6178178 40.6228125,59.0141377 40.186875,58.5767225 Z" id="Shape"></path>
                    </g>
                </g>
            </g>
        </g>
    </g>
</svg>