<?xml version="1.0" encoding="UTF-8"?>
<svg width="48px" height="48px" viewBox="0 0 48 48" version="1.1" xmlns="http://www.w3.org/2000/svg" xmlns:xlink="http://www.w3.org/1999/xlink">
    <!-- Generator: Sketch 50 (54983) - http://www.bohemiancoding.com/sketch -->
    <title>translation</title>
    <desc>Created with Sketch.</desc>
    <defs></defs>
    <g id="Yasna-Web-3" stroke="none" stroke-width="1" fill="none" fill-rule="evenodd">
        <g id="Yasna-Web-3---Landing-2-Copy-2" transform="translate(-462.000000, -1772.000000)" fill="#FFFFFF" fill-rule="nonzero">
            <g id="Group-2" transform="translate(135.000000, 1721.000000)">
                <g id="Group-Copy-3" transform="translate(234.000000, 0.000000)">
                    <g id="Group-4" transform="translate(77.000000, 35.000000)">
                        <g id="translation" transform="translate(16.000000, 16.000000)">
                            <path d="M21.026459,11.0282449 C20.4855738,11.0282449 20.0429508,11.4691592 20.0429508,12.0081306 L20.0429508,17.0252082 L19.0103607,17.0252082 C19.0103607,17.0056163 19.0103607,16.9762286 19.0103607,16.9566367 C19.0103607,16.9468408 19.0103607,16.9370449 19.0103607,16.9370449 C18.6660984,13.5171918 15.3715082,10.7636571 11.9490492,11.0380408 C11.4081639,11.0772245 11.0048852,11.5574204 11.0442295,12.0962939 C11.0835738,12.6352653 11.5654426,13.0369959 12.1063279,12.9978122 C14.4273443,12.8115918 16.7482623,14.7224816 17.0335082,17.0350041 L6.99245902,17.0350041 C6.71704918,17.0350041 6.45157377,17.1525551 6.26468852,17.3583673 C6.07780328,17.5641796 5.98927869,17.8385633 6.01878689,18.112849 C6.186,19.7786449 7.07104918,21.3661714 8.43806557,22.4832 C9.62803279,23.4434939 11.0737377,23.9726694 12.4997705,23.9726694 C12.6964918,23.9726694 12.9029508,23.9628735 13.0996721,23.9432816 C15.853377,23.6493061 18.1350492,21.5620898 18.8136393,19.0045714 L20.0429508,19.0045714 L20.0429508,22.9731918 C20.0429508,23.5121633 20.4854754,23.9530776 21.026459,23.9530776 C21.5673443,23.9530776 22.0099672,23.5121633 22.0099672,22.9731918 L22.0099672,12.0376163 C22.0099672,11.4692571 21.5674426,11.0282449 21.026459,11.0282449 Z M12.8932131,21.9836082 C11.8114426,22.1011592 10.6410492,21.7288163 9.67731148,20.9547429 C9.01839344,20.4255673 8.51685246,19.7396571 8.23160656,18.9949714 L16.7582951,18.9949714 C16.148459,20.5627102 14.6536721,21.7973878 12.8932131,21.9836082 Z" id="Shape"></path>
                            <path d="M39.9090492,32.3313306 L34.9621967,22.5910531 C34.7949836,22.2578939 34.4508197,22.0520816 34.0868852,22.0520816 C33.7132131,22.0520816 33.3787869,22.2578939 33.2115738,22.5910531 L28.1861311,32.5567347 C27.9402295,33.0369306 28.1369508,33.6247837 28.6188197,33.8697796 C28.7565246,33.938351 28.9139016,33.9775347 29.0613443,33.9775347 C29.4251803,33.9775347 29.7694426,33.7815184 29.9366557,33.4385633 L31.6675082,30.0089143 L36.5258361,30.0089143 L38.1584262,33.2229551 C38.4043279,33.703151 38.9943934,33.8990694 39.4762623,33.6540735 C39.9582295,33.3994776 40.1548525,32.8115265 39.9090492,32.3313306 Z M32.6510164,28.0393469 L34.0868852,25.197649 L35.5325902,28.0393469 L32.6510164,28.0393469 Z" id="Shape"></path>
                            <path d="M47.8357377,26.8046694 C47.3637049,23.7375673 45.8589836,20.8958694 43.5969836,18.7890612 C39.3188852,14.8106449 33.0738689,13.9385143 27.9205574,16.456849 C27.1436066,9.49949388 21.2231803,4.06109388 14.0438361,4.06109388 C10.2968852,4.06109388 6.77606557,5.50158367 4.12072131,8.12767347 C1.46537705,10.7538612 0,14.2619755 0,18.0051918 C0,21.7386122 1.46537705,25.2467265 4.12072131,27.8826122 C6.76622951,30.5088 10.2968852,31.9491918 14.0438361,31.9491918 C16.2173115,31.9491918 18.2825902,31.4494041 20.1216393,30.5576816 C20.7510492,36.2508735 24.8520984,41.0720327 30.5168852,42.561502 L30.5267213,42.561502 C31.6576721,42.8358857 32.7887213,42.9730286 33.9098361,42.9730286 C38.9550492,42.9730286 43.7445246,40.2586776 46.2523279,35.711902 C47.7570492,33.0173388 48.3077705,29.8521796 47.8357377,26.8046694 Z M14.0439344,29.9894204 C7.3957377,29.9894204 1.97685246,24.6195918 1.97685246,18.0051918 C1.97685246,11.4006857 7.3957377,6.02096327 14.0439344,6.02096327 C20.662623,6.02096327 26.0421639,11.4005878 26.0421639,18.0051918 C26.0421639,24.6097959 20.662623,29.9894204 14.0439344,29.9894204 Z M44.5411475,34.771298 C41.9054754,39.5532735 36.3488852,41.973551 31.0185246,40.6605061 C25.855377,39.2984816 22.2066885,34.7223184 22.0198033,29.450449 C25.4816066,27.0398694 27.7927869,23.1104327 27.9992459,18.6421224 C32.5723279,15.976751 38.3649836,16.5940898 42.2594754,20.229551 C46.272,23.9531755 47.2063279,29.9306449 44.5411475,34.771298 Z" id="Shape"></path>
                            <path d="M19.0005246,41.8168163 L19.0005246,41.8070204 C18.9906885,41.7678367 18.9808525,41.7286531 18.9710164,41.6992653 C18.9710164,41.6992653 18.9710164,41.6992653 18.9710164,41.6894694 C18.9611803,41.6600816 18.9513443,41.620898 18.9316721,41.5915102 C18.9316721,41.5817143 18.9218361,41.5719184 18.912,41.5621224 C18.9021639,41.5425306 18.8824918,41.5131429 18.8726557,41.493551 C18.8628197,41.4837551 18.8628197,41.4739592 18.8529836,41.4641633 C18.8333115,41.4347755 18.8136393,41.4053878 18.7939672,41.376 C18.7742951,41.3466122 18.7447869,41.3172245 18.7152787,41.2878367 C18.7054426,41.2780408 18.7054426,41.2780408 18.6956066,41.2682449 C18.6759344,41.2486531 18.6464262,41.2290612 18.6267541,41.2094694 C18.616918,41.1996735 18.607082,41.1996735 18.5972459,41.1898776 C18.5775738,41.1702857 18.5480656,41.1604898 18.5283934,41.140898 C18.5185574,41.131102 18.5087213,41.131102 18.4988852,41.1213061 C18.469377,41.1017143 18.4300328,41.0821224 18.4005246,41.0723265 L13.3749836,39.0536816 C12.8734426,38.8478694 12.3030492,39.0928653 12.0964918,39.5926531 C11.8899344,40.0924408 12.1358361,40.660702 12.637377,40.8665143 L16.0008197,42.2187429 C14.1519344,43.2084245 11.9194426,43.2867918 9.98203279,42.3656816 L9.97219672,42.3656816 C7.52340984,41.2387592 5.97934426,38.7498122 6.03836066,36.0060735 C6.04819672,35.467102 5.62534426,35.0163918 5.07452459,35.0065959 C4.53363934,34.9968 4.08118033,35.4181224 4.07134426,35.9668898 C3.98281967,39.484702 5.9792459,42.6890449 9.13622951,44.1491265 C10.3163607,44.7076898 11.5751803,44.9820735 12.8340984,44.9820735 C13.9060328,44.9820735 14.9780656,44.7762612 15.9909836,44.3843265 L15.096,46.5597061 C14.8894426,47.0594939 15.1353443,47.637649 15.6368852,47.8335673 C15.754918,47.8825469 15.8827869,47.9021388 16.0105574,47.9021388 C16.3940656,47.9021388 16.7678361,47.6767347 16.9252131,47.2945959 L18.9511475,42.3460898 C18.9511475,42.3362939 18.9609836,42.326498 18.9609836,42.316702 C18.9511475,42.3069061 18.9511475,42.2971102 18.9609836,42.2873143 C18.9708197,42.2579265 18.9806557,42.2285388 18.9806557,42.2089469 C18.9806557,42.199151 18.9806557,42.1893551 18.9904918,42.1795592 C19.0003279,42.1403755 19.0003279,42.1011918 19.0101639,42.0620082 C19.0101639,42.0228245 19.0101639,41.9934367 19.0101639,41.9542531 C19.0101639,41.9444571 19.0101639,41.9346612 19.0101639,41.9248653 C19.0101639,41.8954776 19.0003279,41.8660898 19.0003279,41.836702 C19.0005246,41.8266122 19.0005246,41.8266122 19.0005246,41.8168163 Z" id="Shape"></path>
                            <path d="M29.0614426,6.19738776 L29.0614426,6.20718367 C29.0712787,6.24636735 29.0811148,6.28555102 29.0909508,6.31493878 C29.0909508,6.31493878 29.0909508,6.31493878 29.0909508,6.32473469 C29.1007869,6.35412245 29.110623,6.39330612 29.1302951,6.42269388 C29.1302951,6.4324898 29.1401311,6.44228571 29.1499672,6.45208163 C29.1598033,6.47167347 29.1794754,6.50106122 29.1893115,6.52065306 C29.1991475,6.53044898 29.1991475,6.5402449 29.2089836,6.55004082 C29.2286557,6.57942857 29.2483279,6.60881633 29.268,6.63820408 C29.2876721,6.66759184 29.3171803,6.69697959 29.3466885,6.72636735 C29.3565246,6.73616327 29.3565246,6.73616327 29.3663607,6.74595918 C29.3860328,6.76555102 29.415541,6.78514286 29.4352131,6.80473469 C29.4450492,6.81453061 29.4548852,6.81453061 29.4647213,6.82432653 C29.4843934,6.84391837 29.5139016,6.85371429 29.5335738,6.87330612 C29.5434098,6.88310204 29.5532459,6.88310204 29.563082,6.89289796 C29.5925902,6.9124898 29.6319344,6.93208163 29.6614426,6.94187755 L34.6869836,8.96052245 C35.1885246,9.16633469 35.758918,8.92133878 35.9654754,8.42155102 C36.1720328,7.92176327 35.9261311,7.35350204 35.4245902,7.1476898 L32.0611475,5.79546122 C33.9100328,4.80577959 36.1425246,4.72741224 38.0799344,5.64852245 L38.0897705,5.64852245 C40.5385574,6.7754449 42.082623,9.26439184 42.0236066,12.0081306 C42.0137705,12.547102 42.436623,12.9978122 42.9874426,13.0076082 C42.9972787,13.0076082 43.0071148,13.0076082 43.0071148,13.0076082 C43.5381639,13.0076082 43.9807869,12.5862857 43.990623,12.0473143 C44.0693115,8.51970612 42.0827213,5.30556735 38.9159016,3.85528163 C36.7227541,2.81662041 34.2542951,2.76754286 32.0709836,3.62008163 L32.9659672,1.44470204 C33.1725246,0.944914286 32.926623,0.366857143 32.425082,0.170840816 C31.923541,-0.0349714286 31.3433115,0.21002449 31.1465902,0.709812245 L29.1206557,5.65831837 C29.1206557,5.66811429 29.1108197,5.6779102 29.1108197,5.68770612 C29.1108197,5.69750204 29.1009836,5.71709388 29.1009836,5.7268898 C29.0911475,5.75627755 29.0813115,5.78566531 29.0813115,5.80525714 C29.0813115,5.81505306 29.0813115,5.82484898 29.0714754,5.8346449 C29.0616393,5.87382857 29.0616393,5.91301224 29.0518033,5.95219592 C29.0518033,5.99137959 29.0518033,6.02076735 29.0518033,6.05995102 C29.0518033,6.06974694 29.0518033,6.07954286 29.0518033,6.08933878 C29.0518033,6.11872653 29.0616393,6.14811429 29.0616393,6.17750204 C29.0614426,6.18759184 29.0614426,6.18759184 29.0614426,6.19738776 Z" id="Shape"></path>
                        </g>
                    </g>
                </g>
            </g>
        </g>
    </g>
</svg>