{
    "name": "Shipping",
    "alias": "shipping",
    "description": "A module to manage shipping methods",
    "version": "0.5.0",
    "release_date": "@TODO",
    "title": "روش‌های حمل",
    "authors": [
        {
            "name": "Taha M Kamkar",
            "email": "taha@yasna.team"
        }
    ],
    "keywords": [],
    "active": 1,
    "order": 92,
    "has_blades":true,
    "has_factories":false,
    "providers": [
        "Modules\\Shipping\\Providers\\ShippingServiceProvider"
    ],
    "aliases": [],
    "files": [
        "start.php"
    ],
    "parent_modules": [
        "Yasna","Manage"
    ],
    "requires": []
}
