{
    "name": "Yasnateam",
    "alias": "yasnateam",
    "description": "Yasna Team Front Module",
    "version": "1.0.0",
    "release_date": "2017-10-29",
    "title": "\u0645\u0627\u0698\u0648\u0644 \u0642\u0627\u0644\u0628 \u06cc\u0633\u0646\u0627",
    "authors": [
        {
            "name": "Mohammad Hadi Rezaei",
            "email": "hadi@yasna.team"
        }
    ],
    "keywords": [],
    "active": 0,
    "order": 1001,
    "has_blades":true,
    "has_factories":false,
    "providers": [
        "Modules\\Yasnateam\\Providers\\YasnateamServiceProvider"
    ],
    "aliases": [],
    "files": [
        "start.php"
    ],
    "parent_modules": [
        "Yasna",
        "Manage",
        "SiteMap",
        "Locale",
        "Users",
        "Address",
        "Posts",
        "Categories",
        "Commenting",
        "Tag",
        "GoogleMap",
        "Attendance",
        "Filemanager",
        "Endpoint"
    ],
    "requires": []
}
