<?xml version="1.0" encoding="iso-8859-1"?>
<!-- Generator: Adobe Illustrator 19.0.0, SVG Export Plug-In . SVG Version: 6.00 Build 0)  -->
<svg version="1.1" id="Capa_1" xmlns="http://www.w3.org/2000/svg" xmlns:xlink="http://www.w3.org/1999/xlink" x="0px" y="0px"
	 viewBox="0 0 512 512" style="enable-background:new 0 0 512 512;" xml:space="preserve">
<path style="fill:#2196F3;" d="M255.136,413.76c-66.048-36.448-120.704-90.752-157.216-156.736c0,0,24.928-15.008,45.696-29.408
	c12.32-8.512,15.936-24.544,10.048-38.304c-13.12-30.656-21.632-63.712-24.544-98.4C127.84,75.488,114.176,64,98.656,64H16
	C7.328,64,0,71.104,0,79.776C-0.128,318.144,193.856,512.128,432.224,512c8.672,0,15.776-7.328,15.776-16v-82.656
	c0-15.488-11.488-29.152-26.944-30.464c-34.656-2.912-67.712-11.424-98.336-24.544c-13.76-5.888-29.76-2.272-38.272,10.048
	C270.08,389.056,255.136,413.76,255.136,413.76z"/>
<path style="fill:#4CAF50;" d="M352,0c-88.224,0-160,57.408-160,128c0,33.248,15.264,63.872,43.2,87.232L224.32,268.8
	c-1.248,6.144,1.184,12.416,6.24,16.096c2.784,2.048,6.112,3.104,9.44,3.104c2.656,0,5.344-0.672,7.744-2.016l62.24-34.496
	C323.776,254.496,337.888,256,352,256c88.224,0,160-57.408,160-128S440.224,0,352,0z"/>
<g>
</g>
<g>
</g>
<g>
</g>
<g>
</g>
<g>
</g>
<g>
</g>
<g>
</g>
<g>
</g>
<g>
</g>
<g>
</g>
<g>
</g>
<g>
</g>
<g>
</g>
<g>
</g>
<g>
</g>
</svg>
