{
    "name": "Deployer",
    "alias": "deployer",
    "description": "An admin panel for using deployer service and managing it.",
    "keywords": [
        "deployer",
        "deploy",
        "admin-panel"
    ],
    "active": 0,
    "order": 71,
    "has_blades":true,
    "has_factories":false,
    "version": "0.1alpha",
    "release_date": "2018-07-07",
    "title": "\u062f\u067e\u0644\u0648\u06cc\u0631",
    "authors": [
        {
            "name": "Meysam P. Ganji",
            "email": "meysam@yasnateam.com"
        }
    ],
    "parent_modules": [
        "Yasna",
        "Manage"
    ],
    "providers": [
        "Modules\\Deployer\\Providers\\DeployerServiceProvider"
    ],
    "aliases": [],
    "files": [
        "start.php"
    ],
    "requires": []
}
