{
  "uploadDir": "posts\/news\/featured-images",
  "fileTypes": {
    "image": {
      "status": true,
      "maxFileSize": "10",
      "maxFiles": "-1",
      "extraFiles": {
        "thumb": {
          "width": "300",
          "height": "300"
        },
        "240x180": {
          "width": "240",
          "height": "180"
        }
      },
      "acceptedExtensions": [
        "jpg",
        "jpeg",
        "png",
        "gif"
      ],
      "acceptedFiles": [
        "image/pjpeg",
        "image/jpeg",
        "image/png",
        "image/gif"
      ]
    },
    "video": {
      "status": false
    },
    "audio": {
      "status": false
    },
    "text": {
      "status": false
    },
    "compressed": {
      "status": false
    },
    "icon": {
      "status": false
    }
  }
}
