{
  "name": "Tickets",
  "alias": "tickets",
  "description": "Module for manage ticketing system.",
  "version": "0.5.0",
  "release_date": "@TODO",
  "title": "تیکت‌ها",
  "authors": [
    {
      "name": "Negar Jamalifard",
      "email": "n.jamalifard@gmail.com"
    },
    {
      "name": "EmiTis Yousefi",
      "email": "emitis89@gmail.com"
    }
  ],
  "keywords": [],
  "active": 1,
  "order": 83,
  "has_blades":true,
  "has_factories":false,
  "providers": [
    "Modules\\Tickets\\Providers\\TicketsServiceProvider"
  ],
  "aliases": [],
  "files": [
    "start.php"
  ],
  "parent_modules": [
    "Yasna",
    "Notifier",
    "Label",
    "Remark",
    "Manage",
    "Posts",
    "Filemanager"
  ],
  "requires": []
}
