{
  "name": "Socialite",
  "alias": "socialite",
  "description": "Social Authentication",
  "version": "0.5.0",
  "release_date": "@TODO",
  "title": "احراز هویت با شبکه‌های اجتماعی",
  "authors": [
    {
      "name": "Emitis Yousefi",
      "email": "emitis89@gmail.com"
    }
  ],
  "keywords": [],
  "active": 1,
  "order": 110,
  "has_blades":false,
  "has_factories":false,
  "providers": [
    "Modules\\Socialite\\Providers\\SocialiteServiceProvider"
  ],
  "aliases": [],
  "files": [
    "start.php"
  ],
  "parent_modules": [
    "Manage",
    "Yasna"
  ],
  "requires": []
}
