{
    "name": "Follows",
    "alias": "follows",
    "description": "",
    "keywords": [],
    "active": 0,
    "order": 45,
    "has_blades":false,
    "has_factories":false,
    "providers": [
        "Modules\\Follows\\Providers\\FollowsServiceProvider"
    ],
    "aliases": [],
    "files": [
        "start.php"
    ],
    "requires": []
}
