<?xml version="1.0" encoding="UTF-8"?>
<svg width="64px" height="48px" viewBox="0 0 64 48" version="1.1" xmlns="http://www.w3.org/2000/svg" xmlns:xlink="http://www.w3.org/1999/xlink">
    <!-- Generator: Sketch 50 (54983) - http://www.bohemiancoding.com/sketch -->
    <title>002-email</title>
    <desc>Created with Sketch.</desc>
    <defs></defs>
    <g id="Page-1" stroke="none" stroke-width="1" fill="none" fill-rule="evenodd">
        <g id="Contact" transform="translate(-688.000000, -534.000000)" fill="#61CEED" fill-rule="nonzero">
            <g id="Select-Copy" transform="translate(585.000000, 476.000000)">
                <g id="002-email" transform="translate(103.000000, 58.000000)">
                    <path d="M57.75,0 L6.25,0 C2.80375,0 0,2.80375 0,6.25 L0,41.25 C0,44.69625 2.80375,47.5 6.25,47.5 L57.75,47.5 C61.19625,47.5 64,44.69625 64,41.25 L64,6.25 C64,2.80375 61.19625,0 57.75,0 Z M56.350375,2.5 L52.100375,6.75 L30.15675,6.75 C29.466375,6.75 28.90675,7.30975 28.90675,8 C28.90675,8.69025 29.466375,9.25 30.15675,9.25 L49.600375,9.25 L46.100375,12.75 L36.853375,12.75 C36.163,12.75 35.603375,13.30975 35.603375,14 C35.603375,14.69025 36.163,15.25 36.853375,15.25 L43.600375,15.25 L37.48775,21.362625 C34.46175,24.3885 29.53825,24.3885 26.51225,21.362625 L7.649625,2.5 L56.350375,2.5 Z M57.75,45 L6.25,45 C5.633125,45 5.051,44.84925 4.537125,44.58425 L10.49075,38.630625 C10.978875,38.1425 10.978875,37.351 10.49075,36.862875 C10.246625,36.61875 9.92675,36.49675 9.606875,36.49675 C9.287,36.49675 8.967,36.618875 8.723,36.862875 L2.820875,42.765 C2.61525,42.301375 2.5,41.789 2.5,41.25 L2.5,6.25 C2.5,4.79875 3.32925,3.538375 4.53825,2.91525 C4.564625,2.9475 4.592875,2.978875 4.623,3.009 L23.6,21.985875 L15.70675,29.879125 C15.218625,30.36725 15.218625,31.15875 15.70675,31.647 C16.194875,32.13525 16.986375,32.135125 17.474625,31.647 L25.396375,23.725125 C29.20025,26.9295 34.799875,26.9295 38.603875,23.725125 L59.463,44.584375 C58.949,44.84925 58.366875,45 57.75,45 Z M61.5,41.25 C61.5,41.789 61.38475,42.301375 61.179125,42.765 L40.400125,21.98575 L59.377125,3.008875 C59.40725,2.97875 59.435375,2.9475 59.461875,2.915125 C60.67075,3.538375 61.5,4.79875 61.5,6.25 L61.5,41.25 Z" id="Shape"></path>
                    <path d="M25.925,7.116375 C25.6925,6.88375 25.37125,6.75 25.04125,6.75 C24.7125,6.75 24.39,6.88375 24.1575,7.116375 C23.925,7.34875 23.79125,7.67125 23.79125,8 C23.79125,8.32875 23.925,8.65125 24.1575,8.88375 C24.39,9.11625 24.7125,9.25 25.04125,9.25 C25.37125,9.25 25.6925,9.116375 25.925,8.88375 C26.15875,8.65125 26.29125,8.32875 26.29125,8 C26.29125,7.67125 26.15875,7.34875 25.925,7.116375 Z" id="Shape"></path>
                    <path d="M14.12,33.23375 C13.8875,33.00125 13.565,32.8675 13.235,32.8675 C12.90625,32.8675 12.585,33.00125 12.35125,33.23375 C12.11875,33.46625 11.98625,33.78875 11.98625,34.1175 C11.98625,34.4475 12.11875,34.76875 12.35125,35.00125 C12.585,35.235 12.90625,35.3675 13.235,35.3675 C13.565,35.3675 13.8875,35.235 14.12,35.00125 C14.3525,34.76875 14.485,34.4475 14.485,34.1175 C14.485,33.78875 14.3525,33.46625 14.12,33.23375 Z" id="Shape"></path>
                </g>
            </g>
        </g>
    </g>
</svg>