<?xml version="1.0" encoding="UTF-8"?>
<svg width="58px" height="44px" viewBox="0 0 58 44" version="1.1" xmlns="http://www.w3.org/2000/svg" xmlns:xlink="http://www.w3.org/1999/xlink">
    <!-- Generator: Sketch 44.1 (41455) - http://www.bohemiancoding.com/sketch -->
    <title>address-card - FontAwesome</title>
    <desc>Created with Sketch.</desc>
    <defs></defs>
    <g id="Page-1" stroke="none" stroke-width="1" fill="none" fill-rule="evenodd" font-size="50" font-family="FontAwesome" font-weight="normal">
        <g id="Home" transform="translate(-982.000000, -1644.000000)" fill="#FFFFFF">
            <g id="Links" transform="translate(134.000000, 1566.000000)">
                <g id="Link-Copy-2" transform="translate(800.000000, 0.000000)">
                    <text id="address-card---FontAwesome">
                        <tspan x="48" y="118"></tspan>
                    </text>
                </g>
            </g>
        </g>
    </g>
</svg>