<?xml version="1.0" encoding="UTF-8"?>
<svg width="44px" height="44px" viewBox="0 0 44 44" version="1.1" xmlns="http://www.w3.org/2000/svg" xmlns:xlink="http://www.w3.org/1999/xlink">
    <!-- Generator: Sketch 44.1 (41455) - http://www.bohemiancoding.com/sketch -->
    <title>ion-ios-book - Ionicons</title>
    <desc>Created with Sketch.</desc>
    <defs></defs>
    <g id="Page-1" stroke="none" stroke-width="1" fill="none" fill-rule="evenodd" font-size="58" font-family="Ionicons" font-weight="400">
        <g id="Home" transform="translate(-189.000000, -1643.000000)" fill="#FFFFFF">
            <g id="Links" transform="translate(134.000000, 1566.000000)">
                <g id="Link">
                    <text id="ion-ios-book---Ionicons">
                        <tspan x="55" y="121"></tspan>
                    </text>
                </g>
            </g>
        </g>
    </g>
</svg>