<?xml version="1.0" encoding="UTF-8"?>
<svg width="58px" height="44px" viewBox="0 0 58 44" version="1.1" xmlns="http://www.w3.org/2000/svg" xmlns:xlink="http://www.w3.org/1999/xlink">
    <!-- Generator: Sketch 44.1 (41455) - http://www.bohemiancoding.com/sketch -->
    <title>graduate-cap</title>
    <desc>Created with Sketch.</desc>
    <defs>
        <polygon id="path-1" points="28.9449149 0.133489691 0.00896907216 0.133489691 0.00896907216 29.3022577 57.8808608 29.3022577 57.8808608 0.133489691"></polygon>
    </defs>
    <g id="Page-1" stroke="none" stroke-width="1" fill="none" fill-rule="evenodd">
        <g id="Home" transform="translate(-581.000000, -1648.000000)">
            <g id="Links" transform="translate(134.000000, 1566.000000)">
                <g id="Link-Copy" transform="translate(401.000000, 0.000000)">
                    <g id="graduate-cap" transform="translate(46.000000, 82.000000)">
                        <g id="Group-3">
                            <mask id="mask-2" fill="white">
                                <use xlink:href="#path-1"></use>
                            </mask>
                            <g id="Clip-2"></g>
                            <polygon id="Fill-1" fill="#FFFFFF" mask="url(#mask-2)" points="57.8808608 15.355201 57.8808608 14.0805464 28.9282474 0.133489691 0 14.0682887 0 15.3674588 28.9282474 29.3022577"></polygon>
                        </g>
                        <path d="M10.0224897,22.7365979 L10.0224897,31.0721546 L27.4625515,39.4730361 L30.3931959,39.4730361 L47.7854227,31.0954742 C47.8023144,31.058701 47.8181598,31.0219278 47.8332577,30.9851546 L47.8332577,22.7365979 L28.9282474,31.8434948 L10.0224897,22.7365979 Z" id="Fill-4" fill="#FFFFFF"></path>
                        <polygon id="Fill-5" fill="#FFFFFF" points="54.8316753 35.4877784 54.8316753 19.2721443 52.5420206 20.4272113 52.5420206 35.4877784 51.0501649 40.0330052 53.3052887 43.0512474 54.0684072 43.0512474 56.3235309 40.0330052"></polygon>
                    </g>
                </g>
            </g>
        </g>
    </g>
</svg>