{
  "uploadDir": "posts\/products\/catalogs",
  "fileTypes": {
    "image": {
      "status": false
    },
    "video": {
      "status": false
    },
    "audio": {
      "status": false
    },
    "text": {
      "status": true,
      "acceptedExtensions": [
        "pdf"
      ],
      "acceptedFiles": [
        "application/pdf"
      ],
      "maxFileSize": 100,
      "maxFiles": 5,
      "icon": "file-text-o"
    },
    "compressed": {
      "status": false
    },
    "icon": {
      "status": false
    }
  }
}
